{
  "type": "service_account",
  "project_id": "rumahbra-48ff6",
  "private_key_id": "e9325916fe88ef4e620fbf355511c7189be61a12",
  "private_key": "-----BEGIN PRIVATE KEY-----\nMIIEvQIBADANBgkqhkiG9w0BAQEFAASCBKcwggSjAgEAAoIBAQCvZFb+GJA6zVG5\naE6iZrA2QayoKbGhHH00cSRkzoDJ7A7OQwqKVWHtK3Wfvl5PM86V+ABn5YCeWi7Q\ns/mnoa+ccK7IiA1qye5WrbHRdXl/JYSVIaTi85ls0toud//o3EiSvlwvTuuowygN\nFagZH4ckebrU/03EaXX019Qe3+ICWB44FETWtjKeKatJcHnrELlb0dJ3ozNWaB0Q\ngo3FS31pzOqA1+FIEp7lY6q6iMr/f7wkpZe630Qm5S+d21/iMDgtqfRwt52xHLEc\nvo1zeqJRz3BsM+OCphsVR0Ib5Kd7WZLI4f5YURv+8v0txj74UE0Ez/wYBOjWsXCD\n1VyK9jwPAgMBAAECggEAGWDwgYX2YLvS5nwkXLV1K/Sm0hJuZHyl1U/Fz1xeIFmq\n7seen9Oo/tN6CqpWJSm+685d6Kq5yLAN9B8Gse3gZkeb0uJ05o3fkeVCRKe18+Lu\n41Fh9YEAI1IDRhQREJXHXoxy9Fl8GghbJEGM+E2qlWmT0jw6+X+1FL+iLvGAV4xB\nQeD+oSqD9cLMjapFfccl82or8ULP+sGgigFnYD/InrUSHdx8iaauU+ed+PxCyDkq\n1e7pD/A6xoMJ1C9M2kkjdZaDzAm1me66oAAy6nHIbI+tGBri2KbvBLYSFoUwz8Gv\ngFUYRft/Ssp2eaB0k4ef3DEfl31omEw4YtvY6whgMQKBgQDaK5OS/vbAFoRbe4GI\nL2WvvGvQ0EKoWSxVA39qRRJTQC8NiwyTkXBRDUrMyA2PlbNUWxII9mTpJnmzU8PS\naZ2yETiPPQTOb2Pw5mWAgAXE/d7P9q7hswYK83TPwUuBQCkBqAxxCX9iB+f/9U7q\nV6pmN615APfS2q3qgzsBkBQtmQKBgQDNzd2uWyHDIamfYAnoolscV6rqsiDFzCOV\n2UpDEXSqrPxoH+sKKqDmn7Rkc0xmnsrWjEaskyYi/hpvbvbw2m6SkEFOPZ6EwiGW\nRK/zsVNCLKiVqqyxKRFfbZHMJw5UIBKYQS+X3HHbfGGVhxs+KuMyvr8erTN4sETV\nozENILIv5wKBgGX+/2Q2nMda/5ABYqJ3fjO1hDZAVxl7bxVjqDrXheSz2gub2UpY\nMUlDTJgGYwigtREX7ouQHcc+fKEQ5TjGtbndATM+FLQqMXAbVpLHx2q8QWG6czID\nTyzpes/yD0mi5Ejo9sAV7562EYmBdt5qE7jsCMbMZBAIukwsA/cME9LpAoGBAKYl\nSI317G/HwVR1CArS55MeA1GttF96yk+zOAylDvaq6Kp2+h0fBP6qd8uQeWFvWHmU\njYnM0cD2OwkzIBCZhyKzasVrYYnz34Gcuh+WTIzj2MXbH8d2TBwqLMYP0bWAnwJj\nvbRvt0tmQrGgfRHXNcxFya1OTntkcm22bWcXukKJAoGAHRxUnutG+65h7On5GOZv\nwZwdTdQLgC3KHJ/UqM9bc1OFmc683WRdzuP8EH+mK3IDUruhOPId9R+V15aJadZT\n2IxS2yqFgQRcmcBbZv1vyZQ6LJvAczYuEfa8ScAsrkkGTbCmW7a8XO2LbHCVXX5G\n6eA/zy2G3AF+7xUG1OuRtfI=\n-----END PRIVATE KEY-----\n",
  "client_email": "firebase-adminsdk-ki85t@rumahbra-48ff6.iam.gserviceaccount.com",
  "client_id": "113578803006265820645",
  "auth_uri": "https://accounts.google.com/o/oauth2/auth",
  "token_uri": "https://oauth2.googleapis.com/token",
  "auth_provider_x509_cert_url": "https://www.googleapis.com/oauth2/v1/certs",
  "client_x509_cert_url": "https://www.googleapis.com/robot/v1/metadata/x509/firebase-adminsdk-ki85t%40rumahbra-48ff6.iam.gserviceaccount.com"
}
